1-s.txt                   7146176973514249212982021 2000 10064441          =
2-s.txt                   7146176973514249212982021 2000 10064482          =
3-s.txt                   7146176973514249212982021 2000 100644123         =
4-s.txt                   7146176973514249212982021 2000 100644164         =
5-s.txt                   7146176973514249212982021 2000 100644205         =
latin1.txt               10146176984114559557612021 2000 1006445453        =
latin2.txt               10146176984114559557622021 2000 1006444886        =
latin3.txt               10146176984114559557632021 2000 1006445375        =
latin4.txt               10146176984114559557632021 2000 1006444754        =
latin5.txt               10146176984114559557642021 2000 1006444270        =
